Companies/Services: ['companies', 'services']
Documents: full

Min number of characters: ('s-li', 5.200689540780058)
Max number of characters: ('s-aboutyou', 42.083880663475455)
Average number of characters: 6.941188216540784




Companies/Services: ['companies']
Documents: full

Min number of characters: ('c-zooplus', 5.421875)
Max number of characters: ('c-norma-online', 8.111731843575418)
Average number of characters: 6.599940517704285




Companies/Services: ['services']
Documents: full

Min number of characters: ('s-li', 5.200689540780058)
Max number of characters: ('s-aboutyou', 42.083880663475455)
Average number of characters: 7.061628580836017




Companies/Services: ['companies', 'services']
Documents: ['mandatory']

Min number of characters: ('s-li', 5.200689540780058)
Max number of characters: ('s-aboutyou', 42.083880663475455)
Average number of characters: 6.941188216540784




Companies/Services: ['companies', 'services']
Documents: ['data_priv']

Min number of characters: ('c-misterspex', 6.221306277742549)
Max number of characters: ('s-aboutyou', 45.78172432864254)
Average number of characters: 7.031880236054137




